﻿  party.cpp
c:\users\jamil\documents\projets\pablo\src\scripting\python34\include\pymath.h(22): warning C4273: 'round' : liaison DLL incohérente
  C:\Program Files (x86)\Windows Kits\10\Include\10.0.10240.0\ucrt\math.h(521): note: voir la définition précédente de 'round'
src\scenes\party.cpp(173): warning C4244: 'argument' : conversion de 'float' en 'unsigned int', perte possible de données
src\scenes\party.cpp(382): warning C4244: 'argument' : conversion de 'int' en 'float', perte possible de données
  bot.cpp
src\player\bot.cpp(103): warning C4244: 'initialisation' : conversion de 'lua_Number' en 'int', perte possible de données
  Génération de code en cours...
c:\users\jamil\documents\projets\pablo\src\abstract\container.hpp(66): warning C4715: 'Container<sf::Texture>::get' : les chemins de contrôle ne retournent pas tous une valeur
  Pablo.vcxproj -> C:\Users\Jamil\Documents\Projets\Pablo\Debug\Pablo.exe
  Pablo.vcxproj -> C:\Users\Jamil\Documents\Projets\Pablo\Debug\Pablo.pdb (Partial PDB)
