^C:\USERS\JAMIL\DOCUMENTS\PROJETS\PABLO\SRC\ABSTRACT\FUNCTIONS.CPP
/c /I"C:\USERS\JAMIL\DOCUMENTS\PYBIND11-MASTER\INCLUDE" /I"C:\USERS\JAMIL\DOCUMENTS\SFML VISUAL STUDIO\SFML-2.5.0\INCLUDE" /IC:\USERS\JAMIL\DOCUMENTS\PROJETS\PABLO\SRC\SCRIPTING\PYTHON34\INCLUDE /IC:\USERS\JAMIL\DOCUMENTS\BOOST_1_67_0 /Zi /nologo /W3 /WX- /diagnostics:classic /O2 /Oy- /D WIN32 /D SFML_DYNAMIC /D NDEBUG /D _CONSOLE /Gm- /EHsc /MD /GS /fp:precise /Zc:wchar_t /Zc:forScope /Zc:inline /Fo"RELEASE\\" /Fd"RELEASE\VC141.PDB" /Gd /TP /analyze- C:\USERS\JAMIL\DOCUMENTS\PROJETS\PABLO\SRC\ABSTRACT\FUNCTIONS.CPP
^C:\USERS\JAMIL\DOCUMENTS\PROJETS\PABLO\SRC\ABSTRACT\TERMINAL.CPP
/c /I"C:\USERS\JAMIL\DOCUMENTS\PYBIND11-MASTER\INCLUDE" /I"C:\USERS\JAMIL\DOCUMENTS\SFML VISUAL STUDIO\SFML-2.5.0\INCLUDE" /IC:\USERS\JAMIL\DOCUMENTS\PROJETS\PABLO\SRC\SCRIPTING\PYTHON34\INCLUDE /IC:\USERS\JAMIL\DOCUMENTS\BOOST_1_67_0 /Zi /nologo /W3 /WX- /diagnostics:classic /O2 /Oy- /D WIN32 /D SFML_DYNAMIC /D NDEBUG /D _CONSOLE /Gm- /EHsc /MD /GS /fp:precise /Zc:wchar_t /Zc:forScope /Zc:inline /Fo"RELEASE\\" /Fd"RELEASE\VC141.PDB" /Gd /TP /analyze- C:\USERS\JAMIL\DOCUMENTS\PROJETS\PABLO\SRC\ABSTRACT\TERMINAL.CPP
^C:\USERS\JAMIL\DOCUMENTS\PROJETS\PABLO\SRC\JSONCPP.CPP
/c /I"C:\USERS\JAMIL\DOCUMENTS\PYBIND11-MASTER\INCLUDE" /I"C:\USERS\JAMIL\DOCUMENTS\SFML VISUAL STUDIO\SFML-2.5.0\INCLUDE" /IC:\USERS\JAMIL\DOCUMENTS\PROJETS\PABLO\SRC\SCRIPTING\PYTHON34\INCLUDE /IC:\USERS\JAMIL\DOCUMENTS\BOOST_1_67_0 /Zi /nologo /W3 /WX- /diagnostics:classic /O2 /Oy- /D WIN32 /D SFML_DYNAMIC /D NDEBUG /D _CONSOLE /Gm- /EHsc /MD /GS /fp:precise /Zc:wchar_t /Zc:forScope /Zc:inline /Fo"RELEASE\\" /Fd"RELEASE\VC141.PDB" /Gd /TP /analyze- C:\USERS\JAMIL\DOCUMENTS\PROJETS\PABLO\SRC\JSONCPP.CPP
^C:\USERS\JAMIL\DOCUMENTS\PROJETS\PABLO\SRC\PLAYER\CALL_FUNCTION.C
/c /I"C:\USERS\JAMIL\DOCUMENTS\PYBIND11-MASTER\INCLUDE" /I"C:\USERS\JAMIL\DOCUMENTS\SFML VISUAL STUDIO\SFML-2.5.0\INCLUDE" /IC:\USERS\JAMIL\DOCUMENTS\PROJETS\PABLO\SRC\SCRIPTING\PYTHON34\INCLUDE /IC:\USERS\JAMIL\DOCUMENTS\BOOST_1_67_0 /Zi /nologo /W3 /WX- /diagnostics:classic /O2 /Oy- /D WIN32 /D SFML_DYNAMIC /D NDEBUG /D _CONSOLE /Gm- /EHsc /MD /GS /fp:precise /Zc:wchar_t /Zc:forScope /Zc:inline /Fo"RELEASE\\" /Fd"RELEASE\VC141.PDB" /Gd /TC /analyze- C:\USERS\JAMIL\DOCUMENTS\PROJETS\PABLO\SRC\PLAYER\CALL_FUNCTION.C
^C:\USERS\JAMIL\DOCUMENTS\PROJETS\PABLO\MAIN.CPP
/c /I"C:\USERS\JAMIL\DOCUMENTS\PYBIND11-MASTER\INCLUDE" /I"C:\USERS\JAMIL\DOCUMENTS\SFML VISUAL STUDIO\SFML-2.5.0\INCLUDE" /IC:\USERS\JAMIL\DOCUMENTS\PROJETS\PABLO\SRC\SCRIPTING\PYTHON34\INCLUDE /IC:\USERS\JAMIL\DOCUMENTS\BOOST_1_67_0 /Zi /nologo /W3 /WX- /diagnostics:classic /O2 /Oy- /D WIN32 /D SFML_DYNAMIC /D NDEBUG /D _CONSOLE /Gm- /EHsc /MD /GS /fp:precise /Zc:wchar_t /Zc:forScope /Zc:inline /Fo"RELEASE\\" /Fd"RELEASE\VC141.PDB" /Gd /TP /analyze- C:\USERS\JAMIL\DOCUMENTS\PROJETS\PABLO\MAIN.CPP
^C:\USERS\JAMIL\DOCUMENTS\PROJETS\PABLO\SRC\ABSTRACT\BUTTON.CPP
/c /I"C:\USERS\JAMIL\DOCUMENTS\PYBIND11-MASTER\INCLUDE" /I"C:\USERS\JAMIL\DOCUMENTS\SFML VISUAL STUDIO\SFML-2.5.0\INCLUDE" /IC:\USERS\JAMIL\DOCUMENTS\PROJETS\PABLO\SRC\SCRIPTING\PYTHON34\INCLUDE /IC:\USERS\JAMIL\DOCUMENTS\BOOST_1_67_0 /Zi /nologo /W3 /WX- /diagnostics:classic /O2 /Oy- /D WIN32 /D SFML_DYNAMIC /D NDEBUG /D _CONSOLE /Gm- /EHsc /MD /GS /fp:precise /Zc:wchar_t /Zc:forScope /Zc:inline /Fo"RELEASE\\" /Fd"RELEASE\VC141.PDB" /Gd /TP /analyze- C:\USERS\JAMIL\DOCUMENTS\PROJETS\PABLO\SRC\ABSTRACT\BUTTON.CPP
^C:\USERS\JAMIL\DOCUMENTS\PROJETS\PABLO\SRC\ABSTRACT\SCENE.CPP
/c /I"C:\USERS\JAMIL\DOCUMENTS\PYBIND11-MASTER\INCLUDE" /I"C:\USERS\JAMIL\DOCUMENTS\SFML VISUAL STUDIO\SFML-2.5.0\INCLUDE" /IC:\USERS\JAMIL\DOCUMENTS\PROJETS\PABLO\SRC\SCRIPTING\PYTHON34\INCLUDE /IC:\USERS\JAMIL\DOCUMENTS\BOOST_1_67_0 /Zi /nologo /W3 /WX- /diagnostics:classic /O2 /Oy- /D WIN32 /D SFML_DYNAMIC /D NDEBUG /D _CONSOLE /Gm- /EHsc /MD /GS /fp:precise /Zc:wchar_t /Zc:forScope /Zc:inline /Fo"RELEASE\\" /Fd"RELEASE\VC141.PDB" /Gd /TP /analyze- C:\USERS\JAMIL\DOCUMENTS\PROJETS\PABLO\SRC\ABSTRACT\SCENE.CPP
^C:\USERS\JAMIL\DOCUMENTS\PROJETS\PABLO\SRC\CONSTANTS.CPP
/c /I"C:\USERS\JAMIL\DOCUMENTS\PYBIND11-MASTER\INCLUDE" /I"C:\USERS\JAMIL\DOCUMENTS\SFML VISUAL STUDIO\SFML-2.5.0\INCLUDE" /IC:\USERS\JAMIL\DOCUMENTS\PROJETS\PABLO\SRC\SCRIPTING\PYTHON34\INCLUDE /IC:\USERS\JAMIL\DOCUMENTS\BOOST_1_67_0 /Zi /nologo /W3 /WX- /diagnostics:classic /O2 /Oy- /D WIN32 /D SFML_DYNAMIC /D NDEBUG /D _CONSOLE /Gm- /EHsc /MD /GS /fp:precise /Zc:wchar_t /Zc:forScope /Zc:inline /Fo"RELEASE\\" /Fd"RELEASE\VC141.PDB" /Gd /TP /analyze- C:\USERS\JAMIL\DOCUMENTS\PROJETS\PABLO\SRC\CONSTANTS.CPP
^C:\USERS\JAMIL\DOCUMENTS\PROJETS\PABLO\SRC\GAME.CPP
/c /I"C:\USERS\JAMIL\DOCUMENTS\PYBIND11-MASTER\INCLUDE" /I"C:\USERS\JAMIL\DOCUMENTS\SFML VISUAL STUDIO\SFML-2.5.0\INCLUDE" /IC:\USERS\JAMIL\DOCUMENTS\PROJETS\PABLO\SRC\SCRIPTING\PYTHON34\INCLUDE /IC:\USERS\JAMIL\DOCUMENTS\BOOST_1_67_0 /Zi /nologo /W3 /WX- /diagnostics:classic /O2 /Oy- /D WIN32 /D SFML_DYNAMIC /D NDEBUG /D _CONSOLE /Gm- /EHsc /MD /GS /fp:precise /Zc:wchar_t /Zc:forScope /Zc:inline /Fo"RELEASE\\" /Fd"RELEASE\VC141.PDB" /Gd /TP /analyze- C:\USERS\JAMIL\DOCUMENTS\PROJETS\PABLO\SRC\GAME.CPP
^C:\USERS\JAMIL\DOCUMENTS\PROJETS\PABLO\SRC\OBJECTS\CARD.CPP
/c /I"C:\USERS\JAMIL\DOCUMENTS\PYBIND11-MASTER\INCLUDE" /I"C:\USERS\JAMIL\DOCUMENTS\SFML VISUAL STUDIO\SFML-2.5.0\INCLUDE" /IC:\USERS\JAMIL\DOCUMENTS\PROJETS\PABLO\SRC\SCRIPTING\PYTHON34\INCLUDE /IC:\USERS\JAMIL\DOCUMENTS\BOOST_1_67_0 /Zi /nologo /W3 /WX- /diagnostics:classic /O2 /Oy- /D WIN32 /D SFML_DYNAMIC /D NDEBUG /D _CONSOLE /Gm- /EHsc /MD /GS /fp:precise /Zc:wchar_t /Zc:forScope /Zc:inline /Fo"RELEASE\\" /Fd"RELEASE\VC141.PDB" /Gd /TP /analyze- C:\USERS\JAMIL\DOCUMENTS\PROJETS\PABLO\SRC\OBJECTS\CARD.CPP
^C:\USERS\JAMIL\DOCUMENTS\PROJETS\PABLO\SRC\OBJECTS\PACKAGE.CPP
/c /I"C:\USERS\JAMIL\DOCUMENTS\PYBIND11-MASTER\INCLUDE" /I"C:\USERS\JAMIL\DOCUMENTS\SFML VISUAL STUDIO\SFML-2.5.0\INCLUDE" /IC:\USERS\JAMIL\DOCUMENTS\PROJETS\PABLO\SRC\SCRIPTING\PYTHON34\INCLUDE /IC:\USERS\JAMIL\DOCUMENTS\BOOST_1_67_0 /Zi /nologo /W3 /WX- /diagnostics:classic /O2 /Oy- /D WIN32 /D SFML_DYNAMIC /D NDEBUG /D _CONSOLE /Gm- /EHsc /MD /GS /fp:precise /Zc:wchar_t /Zc:forScope /Zc:inline /Fo"RELEASE\\" /Fd"RELEASE\VC141.PDB" /Gd /TP /analyze- C:\USERS\JAMIL\DOCUMENTS\PROJETS\PABLO\SRC\OBJECTS\PACKAGE.CPP
^C:\USERS\JAMIL\DOCUMENTS\PROJETS\PABLO\SRC\PLAYER\BOT.CPP
/c /I"C:\USERS\JAMIL\DOCUMENTS\PYBIND11-MASTER\INCLUDE" /I"C:\USERS\JAMIL\DOCUMENTS\SFML VISUAL STUDIO\SFML-2.5.0\INCLUDE" /IC:\USERS\JAMIL\DOCUMENTS\PROJETS\PABLO\SRC\SCRIPTING\PYTHON34\INCLUDE /IC:\USERS\JAMIL\DOCUMENTS\BOOST_1_67_0 /Zi /nologo /W3 /WX- /diagnostics:classic /O2 /Oy- /D WIN32 /D SFML_DYNAMIC /D NDEBUG /D _CONSOLE /Gm- /EHsc /MD /GS /fp:precise /Zc:wchar_t /Zc:forScope /Zc:inline /Fo"RELEASE\\" /Fd"RELEASE\VC141.PDB" /Gd /TP /analyze- C:\USERS\JAMIL\DOCUMENTS\PROJETS\PABLO\SRC\PLAYER\BOT.CPP
^C:\USERS\JAMIL\DOCUMENTS\PROJETS\PABLO\SRC\PLAYER\PLAYER.CPP
/c /I"C:\USERS\JAMIL\DOCUMENTS\PYBIND11-MASTER\INCLUDE" /I"C:\USERS\JAMIL\DOCUMENTS\SFML VISUAL STUDIO\SFML-2.5.0\INCLUDE" /IC:\USERS\JAMIL\DOCUMENTS\PROJETS\PABLO\SRC\SCRIPTING\PYTHON34\INCLUDE /IC:\USERS\JAMIL\DOCUMENTS\BOOST_1_67_0 /Zi /nologo /W3 /WX- /diagnostics:classic /O2 /Oy- /D WIN32 /D SFML_DYNAMIC /D NDEBUG /D _CONSOLE /Gm- /EHsc /MD /GS /fp:precise /Zc:wchar_t /Zc:forScope /Zc:inline /Fo"RELEASE\\" /Fd"RELEASE\VC141.PDB" /Gd /TP /analyze- C:\USERS\JAMIL\DOCUMENTS\PROJETS\PABLO\SRC\PLAYER\PLAYER.CPP
^C:\USERS\JAMIL\DOCUMENTS\PROJETS\PABLO\SRC\SCENES\MAINMENU.CPP
/c /I"C:\USERS\JAMIL\DOCUMENTS\PYBIND11-MASTER\INCLUDE" /I"C:\USERS\JAMIL\DOCUMENTS\SFML VISUAL STUDIO\SFML-2.5.0\INCLUDE" /IC:\USERS\JAMIL\DOCUMENTS\PROJETS\PABLO\SRC\SCRIPTING\PYTHON34\INCLUDE /IC:\USERS\JAMIL\DOCUMENTS\BOOST_1_67_0 /Zi /nologo /W3 /WX- /diagnostics:classic /O2 /Oy- /D WIN32 /D SFML_DYNAMIC /D NDEBUG /D _CONSOLE /Gm- /EHsc /MD /GS /fp:precise /Zc:wchar_t /Zc:forScope /Zc:inline /Fo"RELEASE\\" /Fd"RELEASE\VC141.PDB" /Gd /TP /analyze- C:\USERS\JAMIL\DOCUMENTS\PROJETS\PABLO\SRC\SCENES\MAINMENU.CPP
^C:\USERS\JAMIL\DOCUMENTS\PROJETS\PABLO\SRC\SCENES\PARTY.CPP
/c /I"C:\USERS\JAMIL\DOCUMENTS\PYBIND11-MASTER\INCLUDE" /I"C:\USERS\JAMIL\DOCUMENTS\SFML VISUAL STUDIO\SFML-2.5.0\INCLUDE" /IC:\USERS\JAMIL\DOCUMENTS\PROJETS\PABLO\SRC\SCRIPTING\PYTHON34\INCLUDE /IC:\USERS\JAMIL\DOCUMENTS\BOOST_1_67_0 /Zi /nologo /W3 /WX- /diagnostics:classic /O2 /Oy- /D WIN32 /D SFML_DYNAMIC /D NDEBUG /D _CONSOLE /Gm- /EHsc /MD /GS /fp:precise /Zc:wchar_t /Zc:forScope /Zc:inline /Fo"RELEASE\\" /Fd"RELEASE\VC141.PDB" /Gd /TP /analyze- C:\USERS\JAMIL\DOCUMENTS\PROJETS\PABLO\SRC\SCENES\PARTY.CPP
^C:\USERS\JAMIL\DOCUMENTS\PROJETS\PABLO\SRC\SCENES\PARTYCONFIGURATOR.CPP
/c /I"C:\USERS\JAMIL\DOCUMENTS\PYBIND11-MASTER\INCLUDE" /I"C:\USERS\JAMIL\DOCUMENTS\SFML VISUAL STUDIO\SFML-2.5.0\INCLUDE" /IC:\USERS\JAMIL\DOCUMENTS\PROJETS\PABLO\SRC\SCRIPTING\PYTHON34\INCLUDE /IC:\USERS\JAMIL\DOCUMENTS\BOOST_1_67_0 /Zi /nologo /W3 /WX- /diagnostics:classic /O2 /Oy- /D WIN32 /D SFML_DYNAMIC /D NDEBUG /D _CONSOLE /Gm- /EHsc /MD /GS /fp:precise /Zc:wchar_t /Zc:forScope /Zc:inline /Fo"RELEASE\\" /Fd"RELEASE\VC141.PDB" /Gd /TP /analyze- C:\USERS\JAMIL\DOCUMENTS\PROJETS\PABLO\SRC\SCENES\PARTYCONFIGURATOR.CPP
